…
## `mk_track_names`

### Rename track names to a uniform format

Joins with the `tracks` dataset by `category`, `individual_cup`, and
`segment_id`.

``` r
mk_track_names(repaired_runs, style = "full") %>% 
  select(category, individual_cup, segment_id, contains("segment_name")) %>% 
  distinct()
```

    ## # A tibble: 29 × 5
    ##    category     individual_cup segment_id og_segment_name segment_name          
    ##    <chr>        <chr>               <dbl> <chr>           <chr>                 
    ##  1 Bonus Cups   Bell Cup                1 dNBC            Neo Bowser City [3DS] 
    ##  2 Bonus Cups   Bell Cup                2 dRiR            Ribbon Road [GBA]     
    ##  3 Bonus Cups   Bell Cup                3 dSBS            Super Bell Subway     
    ##  4 Bonus Cups   Bell Cup                4 dBB             Big Blue              
    ##  5 DLC Cups     Boomerang Cup           1 bBR             Bangkok Rush [Tour]   
    ##  6 DLC Cups     Boomerang Cup           2 bMC             Mario Circuit [DS]    
    ##  7 DLC Cups     Boomerang Cup           3 bWS             Waluigi Stadium [GCN] 
    ##  8 DLC Cups     Boomerang Cup           4 bSSY            Singapore Speedway [T…
    ##  9 Nitro Tracks <NA>                    1 MKS             Mario Kart Stadium    
    ## 10 Nitro Tracks <NA>                    2 WP              Water Park            
    ## # ℹ 19 more rows
…
